R Notebook · tdemmer
…
td_club$Date <- mdy(td_club$Date)
td_club$Game <- as.integer(td_club$Game)
td_club$TD <- as.integer(td_club$TD)

td_club

## # A tibble: 48 x 6
##    Player          Year Date        Game Team     TD
##    <chr>          <dbl> <date>     <int> <chr> <int>
##  1 Peyton Manning  2013 2013-09-05     1 DEN       7
##  2 Peyton Manning  2013 2013-09-15     2 DEN       2
##  3 Peyton Manning  2013 2013-09-23     3 DEN       3
##  4 Peyton Manning  2013 2013-09-29     4 DEN       4
##  5 Peyton Manning  2013 2013-10-06     5 DEN       4
##  6 Peyton Manning  2013 2013-10-13     6 DEN       2
##  7 Peyton Manning  2013 2013-10-20     7 DEN       3
##  8 Peyton Manning  2013 2013-10-27     8 DEN       4
##  9 Peyton Manning  2013 2013-11-10     9 DEN       4
## 10 Peyton Manning  2013 2013-11-17    10 DEN       1
## # … with 38 more rows

tds <- td_club %>% 
  group_by(Player) %>% 
  mutate(Total_TD = cumsum(TD)) %>% 
  ungroup()
tds

## # A tibble: 48 x 7
##    Player          Year Date        Game Team     TD Total_TD
##    <chr>          <dbl> <date>     <int> <chr> <int>    <int>
##  1 Peyton Manning  2013 2013-09-05     1 DEN       7        7
##  2 Peyton Manning  2013 2013-09-15     2 DEN       2        9
##  3 Peyton Manning  2013 2013-09-23     3 DEN       3       12
##  4 Peyton Manning  2013 2013-09-29     4 DEN       4       16
##  5 Peyton Manning  2013 2013-10-06     5 DEN       4       20
##  6 Peyton Manning  2013 2013-10-13     6 DEN       2       22
##  7 Peyton Manning  2013 2013-10-20     7 DEN       3       25
##  8 Peyton Manning  2013 2013-10-27     8 DEN       4       29
##  9 Peyton Manning  2013 2013-11-10     9 DEN       4       33
## 10 Peyton Manning  2013 2013-11-17    10 DEN       1       34
## # … with 38 more rows
…
